…
### Load Rosters

The best way is to use the wrapper `rusfl::usfl_load_rosters()` and
choose the teams. The default loads all teams.

``` r
roster <- rusfl::usfl_load_rosters()
roster
#> # A tibble: 369 × 9
#>    team  player_name    pos     age ht      wt    college player_jersey headshot
#>    <chr> <chr>          <chr> <int> <chr>   <chr> <chr>           <int> <chr>   
#>  1 BHAM  Alex McGough   QB       26 "6'3\"" 214 … Florid…             2 https:/…
#>  2 BHAM  Bobby Holly    FB       24 "5'11\… 240 … Louisi…            44 https:/…
#>  3 BHAM  CJ Marable     RB       25 "5'11\… 194 … Coasta…            11 https:/…
#>  4 BHAM  Cameron Hunt   G        27 "6'4\"" 305 … Oregon             78 https:/…
#>  5 BHAM  Cary Angeline  TE       24 "6'7\"" 250 … North …            86 https:/…
#>  6 BHAM  Darius Harper  T        24 "6'6\"" 310 … Cincin…            73 https:/…
#>  7 BHAM  J'Mar Smith    QB       25 "6'1\"" 218 … Louisi…             6 https:/…
#>  8 BHAM  Jordan Chunn   RB       27 "6'0\"" 230 … Troy               38 https:/…
#>  9 BHAM  Jordan McCray  C        29 "6'2\"" 280 … UCF                51 https:/…
#> 10 BHAM  Justice Powers T        26 "6'3\"" 295 … UAB                50 https:/…
#> # … with 359 more rows
```
…
